{
    "Response": {
        "RespCode": "0",
        "RespDesc": "Success",
        "ErrorDetails": ""
    },
    "AgentProducts": [
        {
            "PrdCode": "303",
            "PrdDesc": "CIC ACADEMIA",
            "IsLAEnforced": "0",
            "IsCoveredMembers": "0",
            "color":"green",
            "DetailedDescription":"CIC Academia plan is a combination of insurance protection and savings that allows you to prepare for\r\nthe cost of child\u2019s education\r\nCIC Academia plan is a combination of insurance protection and savings that allows you to prepare for\r\nthe cost of child\u2019s education\r\nCIC Academia plan is a combination of insurance protection and savings that allows you to prepare for\r\nthe cost of child\u2019s education","DetailedDetailedDescription":"CIC Academia plan is a combination of insurance protection and savings that allows you to prepare for\r\nthe cost of child\u2019s education\r\nCIC Academia plan is a combination of insurance protection and savings that allows you to prepare for\r\nthe cost of child\u2019s education\r\nCIC Academia plan is a combination of insurance protection and savings that allows you to prepare for\r\nthe cost of child\u2019s education",
            "ProductImgURL":"https://m-bima.co.ke/inc/imgs/prod_academia.jpg"
        },
        {
            "PrdCode": "101",
            "PrdDesc": "CIC SMART SAVER",
            "IsLAEnforced": "0",
            "IsCoveredMembers": "0",
            "color":"blue",
            "DetailedDescription":"This is a five years life savings plan that enables you to build a savings while giving you a life cover. It has easy payment mode and affordable installments.","DetailedDetailedDescription":"This is a five years life savings plan that enables you to build a savings while giving you a life cover. It has easy payment mode and affordable installments.",
            "ProductImgURL":"https:\/\/m-bima.co.ke\/inc\/imgs\/prod_jijenge5.jpg"
        },
        {
            "PrdCode": "203",
            "PrdDesc": "INVESTPLAN ",
            "IsLAEnforced": "0",
            "IsCoveredMembers": "0",
            "color":"orange",
            "DetailedDescription":"This policy enables planning of finances in a regular manner to avail money in a lump sum in several instalments every 4 years. This will enable you to finance your projects of choice in accordance with your time plan while providing a life cover.\r\nOnce can choose from either the following plans 12 years, 16 years, 20 years and 24 years policies.\r\n","DetailedDetailedDescription":"This policy enables planning of finances in a regular manner to avail money in a lump sum in several instalments every 4 years. This will enable you to finance your projects of choice in accordance with your time plan while providing a life cover.\r\nOnce can choose from either the following plans 12 years, 16 years, 20 years and 24 years policies.\r\n",
            "ProductImgURL":"https:\/\/m-bima.co.ke\/inc\/imgs\/prod_investPlan.jpg"
        },
        {
            "PrdCode": "907",
            "PrdDesc": "CIC  FAMILY LIFE PLAN",
            "IsLAEnforced": "1",
            "IsCoveredMembers": "1",
            "color":"purple",
            "DetailedDescription":"This is a 5 year policy that help families deal with grief, rather than worry about funeral expenses. It covers the applicant, spouse, two parents in good health ages between 18 to 70 years on entry and 4 children between ages 6 months to 18 years. The policy has a 6 month waiting period on inception or reinstatement of cover." ,
            "ProductImgURL":"https://m-bima.co.ke/inc/imgs/prod_academia.jpg"           
        }
    ]
}